f175e3908ab741172dca082a2a1703fbb05148b51dac751507dc7632c50f693a  tor-browser-linux32-5.5_ar.tar.xz
28787dd811152b9afd1d1821a0770bd9eefe7fc25bb415c3d5ad0765665e8d8d  tor-browser-linux32-5.5_de.tar.xz
8ebf47dc26fd6d867d54cf6d04675e5bd3fdba4927beaf6af340c2a07b8f7a75  tor-browser-linux32-5.5_en-US.tar.xz
e28c844b7fd02515cf51f245ac4be2fbc2ee77dd0053515db436090751fa7b97  tor-browser-linux32-5.5_es-ES.tar.xz
eb56faf8639c4f7019b6adcdb0140048a95a7d165893c8d61a37780ac74b1488  tor-browser-linux32-5.5_fa.tar.xz
ac90e739fd3fb1e096e3f728265227df81e9416b8e34345513194ef0f2e69e3f  tor-browser-linux32-5.5_fr.tar.xz
013d6b63ddb16c97cfaef532b11729b017903c80242ef6427ec24c19466f07fa  tor-browser-linux32-5.5_it.tar.xz
3dd24c7e2cf19aede85297913e36744812361cd47f5a26ddc4fca587cd0ee257  tor-browser-linux32-5.5_ja.tar.xz
29c22c65688c87b38f291ffc73f78bd82309e2e1acb06c4716a95f38abba480b  tor-browser-linux32-5.5_ko.tar.xz
410fa9fb4d7f2404b5538a3a487b12aca87ceb26bfa2b95565a2b41ad9835beb  tor-browser-linux32-5.5_nl.tar.xz
fe9f8912254807af8e2171683fbc6b60d00357300f967a4f3dc55a796ea7c6af  tor-browser-linux32-5.5_pl.tar.xz
11936a718c8ee00a464ef24ed0454a0db50142512a67d54058e4468f854ee702  tor-browser-linux32-5.5_pt-PT.tar.xz
954a32dc88c79ac22bb4010156c2a64eb0fa2c2e9d30fe16618f1c8b05fe8a6c  tor-browser-linux32-5.5_ru.tar.xz
a50121d3a1d3d0b60b4fb45be25122298aa55ff052b6303e789425f047e16272  tor-browser-linux32-5.5_tr.tar.xz
25ffc583e8a8dcf4d274c6555961fdd05bc1c57c1e4b054b9e64cb07104ebe44  tor-browser-linux32-5.5_vi.tar.xz
053cec43ed8447e2ad3a122c3d6bd80699b3569c06c26b20bbbb626effcdf406  tor-browser-linux32-5.5_zh-CN.tar.xz
